{
  "links": [
    {
      "name": "mail",
      "url": "mailto:mail@ayeks.de",
      "image": "images/social/mail.svg"
    },
    {
      "name": "github",
      "url": "https://github.com/ayeks",
      "image": "images/social/github.svg"
    },
    {
      "name": "gitlab",
      "url": "https://gitlab.com/ayeks",
      "image": "images/social/gitlab.svg"
    },
    {
      "name": "linkedin",
      "url": "https://www.linkedin.com/in/lars-l%C3%BChr/",
      "image": "images/social/linkedin.svg"
    }
  ]
}